…
``` r
# Tokenize text and remove stop words
tidy_locke <- locke %>% 
  unnest_tokens(output = word, input = text, token = "words") %>%
  anti_join(stop_words) %>% 
  mutate(word = str_extract(word, "[a-z']+"))

# Show a selection of tokens (words)
tidy_locke %>% 
  select(word) %>% 
  slice(144:170)
```

    ## # A tibble: 27 x 1
    ##    word      
    ##    <chr>     
    ##  1 reader    
    ##  2 thou      
    ##  3 hast      
    ##  4 beginning 
    ##  5 discourse 
    ##  6 government
    ##  7 fate      
    ##  8 disposed  
    ##  9 papers    
    ## 10 filled    
    ## # … with 17 more rows
…
